\BOOKMARK [1][-]{section.1}{Funciones}{}% 1
\BOOKMARK [2][-]{subsection.1.1}{Comentarios}{section.1}% 2
\BOOKMARK [2][-]{subsection.1.2}{Asignaci\363n}{section.1}% 3
\BOOKMARK [1][-]{section.2}{Vectores}{}% 4
\BOOKMARK [2][-]{subsection.2.1}{Declaraci\363n de Vectores}{section.2}% 5
