\select@language {spanish}
\contentsline {section}{\numberline {1}Funciones}{2}{section.1}
\contentsline {subsection}{\numberline {1.1}Comentarios}{2}{subsection.1.1}
\contentsline {subsection}{\numberline {1.2}Asignaci\IeC {\'o}n}{2}{subsection.1.2}
\contentsline {section}{\numberline {2}Vectores}{3}{section.2}
\contentsline {subsection}{\numberline {2.1}Declaraci\IeC {\'o}n de Vectores}{3}{subsection.2.1}
