\relax 
\providecommand\hyper@newdestlabel[2]{}
\@writefile{toc}{\contentsline {section}{\numberline {2}Instalaci\IeC {\'o}n}{3}{section.2}}
\@writefile{toc}{\contentsline {subsection}{\numberline {2.1}Instalaci\IeC {\'o}n en Linux}{3}{subsection.2.1}}
\@writefile{toc}{\contentsline {subsubsection}{\numberline {2.1.1}Instalaci\IeC {\'o}n desde un repositorio}{3}{subsubsection.2.1.1}}
\@writefile{toc}{\contentsline {subsubsection}{\numberline {2.1.2}Instalaci\IeC {\'o}n desde archivo fuente}{3}{subsubsection.2.1.2}}
\@writefile{toc}{\contentsline {subsection}{\numberline {2.2}Instalaci\IeC {\'o}n en Windows}{4}{subsection.2.2}}
\@writefile{lof}{\contentsline {figure}{\numberline {1}{\ignorespaces Ventana inicial de instalaci\IeC {\'o}n: Selecci\IeC {\'o}n del idioma de instalaci\IeC {\'o}n\relax }}{4}{figure.1}}
\newlabel{figura1}{{1}{4}{Ventana inicial de instalación: Selección del idioma de instalación\relax }{figure.1}{}}
\@writefile{lof}{\contentsline {figure}{\numberline {2}{\ignorespaces Segunda ventana de instalaci\IeC {\'o}n\relax }}{4}{figure.2}}
\newlabel{figura2}{{2}{4}{Segunda ventana de instalación\relax }{figure.2}{}}
\@writefile{lof}{\contentsline {figure}{\numberline {3}{\ignorespaces Ventana de instalaci\IeC {\'o}n: Informaci\IeC {\'o}n de licencias y derechos\relax }}{4}{figure.3}}
\newlabel{figura3}{{3}{4}{Ventana de instalación: Información de licencias y derechos\relax }{figure.3}{}}
\@writefile{lof}{\contentsline {figure}{\numberline {4}{\ignorespaces Ventana inicial de instalaci\IeC {\'o}n: Selecci\IeC {\'o}n directorio de instalaci\IeC {\'o}n\relax }}{5}{figure.4}}
\newlabel{figura4}{{4}{5}{Ventana inicial de instalación: Selección directorio de instalación\relax }{figure.4}{}}
\@writefile{lof}{\contentsline {figure}{\numberline {5}{\ignorespaces Segunda ventana de instalaci\IeC {\'o}n\relax }}{5}{figure.5}}
\newlabel{figura5}{{5}{5}{Segunda ventana de instalación\relax }{figure.5}{}}
\@writefile{lof}{\contentsline {figure}{\numberline {6}{\ignorespaces Segunda ventana de instalaci\IeC {\'o}n\relax }}{6}{figure.6}}
\newlabel{figura6}{{6}{6}{Segunda ventana de instalación\relax }{figure.6}{}}
\@writefile{lof}{\contentsline {figure}{\numberline {7}{\ignorespaces Segunda ventana de instalaci\IeC {\'o}n\relax }}{6}{figure.7}}
\newlabel{figura2}{{7}{6}{Segunda ventana de instalación\relax }{figure.7}{}}
\@writefile{lof}{\contentsline {figure}{\numberline {8}{\ignorespaces Segunda ventana de instalaci\IeC {\'o}n\relax }}{6}{figure.8}}
\newlabel{figura8}{{8}{6}{Segunda ventana de instalación\relax }{figure.8}{}}
\@writefile{lof}{\contentsline {figure}{\numberline {9}{\ignorespaces Segunda ventana de instalaci\IeC {\'o}n\relax }}{7}{figure.9}}
\newlabel{figura9}{{9}{7}{Segunda ventana de instalación\relax }{figure.9}{}}
\@writefile{lof}{\contentsline {figure}{\numberline {10}{\ignorespaces Segunda ventana de instalaci\IeC {\'o}n\relax }}{7}{figure.10}}
\newlabel{figura10}{{10}{7}{Segunda ventana de instalación\relax }{figure.10}{}}
\@writefile{lof}{\contentsline {figure}{\numberline {11}{\ignorespaces Segunda ventana de instalaci\IeC {\'o}n\relax }}{7}{figure.11}}
\newlabel{figura11}{{11}{7}{Segunda ventana de instalación\relax }{figure.11}{}}
\@setckpt{src/instalacion/instalacion}{
\setcounter{page}{8}
\setcounter{equation}{0}
\setcounter{enumi}{0}
\setcounter{enumii}{0}
\setcounter{enumiii}{0}
\setcounter{enumiv}{0}
\setcounter{footnote}{0}
\setcounter{mpfootnote}{0}
\setcounter{part}{0}
\setcounter{section}{2}
\setcounter{subsection}{2}
\setcounter{subsubsection}{0}
\setcounter{paragraph}{0}
\setcounter{subparagraph}{0}
\setcounter{figure}{11}
\setcounter{table}{0}
\setcounter{parentequation}{0}
\setcounter{Item}{0}
\setcounter{Hfootnote}{0}
\setcounter{bookmark@seq@number}{8}
\setcounter{ContinuedFloat}{0}
\setcounter{lstnumber}{4}
\setcounter{section@level}{2}
\setcounter{lstlisting}{0}
}
